flights-delay
…
flights_train3 %>% 
  select(where(is.factor)) %>% 
  names()

[1] "carrier" "tailnum" "origin"  "dest"   

Z.B. dest hat viele Stufen:

flights_train3 %>% 
  count(dest, sort = TRUE)

# A tibble: 116 × 2
   dest      n
   <fct> <int>
 1 ORD     941
 2 BOS     933
 3 ATL     890
 4 MCO     860
 5 LAX     816
 6 MIA     806
 7 FLL     707
 8 CLT     673
 9 SFO     588
10 DFW     581
# ℹ 106 more rows
…
  # Now
  across(a:b, \(x) mean(x, na.rm = TRUE))

12 Variante mit fact_lump_n

Sinngemäß bedeutet das:

“Fasse die Faktorstufen von dest zu 8 Gruppen plus einer ‘Lumpensammler-Kategorie’ zusammen.”

flights_train3 %>% 
  mutate(dest_lump9 = fct_lump_n(dest, n = 8)
  )

# A tibble: 21,919 × 19
      id month   day dep_time sched_dep_time dep_delay arr_time sched_arr_time
   <int> <int> <int>    <int>          <int>     <dbl>    <int>          <int>
 1    11     2    22      622            630        -8     1034           1020
 2    26     9    27     1137           1147       -10     1255           1317
 3    28    10     8     1751           1759        -8     2106           2110
 4    37     3    30      807            815        -8      917            930
 5    39     6    14     1019           1025        -6     1127           1151
 6    47     9    26     1045           1051        -6     1345           1357
 7    52     5     9      749            759       -10     1009           1014
 8    55     2    10      914            920        -6     1044           1115
 9    59    12    30     1402           1411        -9     1715           1724
10    61    11    10     1434           1440        -6     1623           1641
# ℹ 21,909 more rows
# ℹ 11 more variables: carrier <fct>, flight <int>, tailnum <fct>,
#   origin <fct>, dest <fct>, air_time <dbl>, distance <dbl>, hour <dbl>,
#   minute <dbl>, time_hour <dttm>, dest_lump9 <fct>
…
